<?xml version="1.0" encoding="UTF-8" standalone="no"?>
<svg
   xmlns:dc="http://purl.org/dc/elements/1.1/"
   xmlns:cc="http://creativecommons.org/ns#"
   xmlns:rdf="http://www.w3.org/1999/02/22-rdf-syntax-ns#"
   xmlns:svg="http://www.w3.org/2000/svg"
   xmlns="http://www.w3.org/2000/svg"
   xmlns:sodipodi="http://sodipodi.sourceforge.net/DTD/sodipodi-0.dtd"
   xmlns:inkscape="http://www.inkscape.org/namespaces/inkscape"
   overflow="visible"
   id="svg6694"
   version="1.1"
   inkscape:version="0.91 r13725"
   sodipodi:docname="Icon_XML_red.svg"
   width="83.300781"
   height="28.63282"
   style="overflow:visible">
  <metadata
     id="metadata6708">
    <rdf:RDF>
      <cc:Work
         rdf:about="">
        <dc:format>image/svg+xml</dc:format>
        <dc:type
           rdf:resource="http://purl.org/dc/dcmitype/StillImage" />
        <dc:title />
      </cc:Work>
    </rdf:RDF>
  </metadata>
  <defs
     id="defs6706" />
  <sodipodi:namedview
     pagecolor="#ffffff"
     bordercolor="#666666"
     borderopacity="1"
     objecttolerance="10"
     gridtolerance="10"
     guidetolerance="10"
     inkscape:pageopacity="0"
     inkscape:pageshadow="2"
     inkscape:window-width="857"
     inkscape:window-height="480"
     id="namedview6704"
     showgrid="false"
     fit-margin-top="0"
     fit-margin-left="0"
     fit-margin-right="0"
     fit-margin-bottom="0"
     inkscape:zoom="2.36"
     inkscape:cx="33.921098"
     inkscape:cy="24.377394"
     inkscape:window-x="2174"
     inkscape:window-y="118"
     inkscape:window-maximized="0"
     inkscape:current-layer="svg6694" />
  <path
     style="fill:#ff0000;fill-opacity:1;stroke-width:1"
     inkscape:connector-curvature="0"
     stroke-linecap="Flat"
     stroke-linejoin="Miter"
     id="path4145"
     d="M 0,28.63282 9.785156,13.69141 0.917969,0 7.675781,0 13.417969,9.19922 19.042969,0 l 6.699219,0 -8.90625,13.90625 9.785156,14.72657 -6.972656,0 -6.347657,-9.90235 -6.367187,9.90235 -6.933594,0 z" />
  <path
     style="fill:#ff0000;fill-opacity:1;stroke-width:1"
     inkscape:connector-curvature="0"
     stroke-linecap="Flat"
     stroke-linejoin="Miter"
     id="path4147"
     d="M 29.550781,28.63282 29.550781,0 38.203125,0 43.398434,19.53125 48.535154,0 l 8.67188,0 0,28.63282 -5.3711,0 0,-22.53907 -5.68359,22.53907 -5.566406,0 -5.664063,-22.53907 0,22.53907 -5.371094,0 z" />
  <path
     style="fill:#ff0000;fill-opacity:1;stroke-width:1"
     inkscape:connector-curvature="0"
     stroke-linecap="Flat"
     stroke-linejoin="Miter"
     id="path4149"
     d="m 63.144534,28.63282 0,-28.39844 5.78125,0 0,23.57422 14.375,0 0,4.82422 -20.15625,0 z" />
</svg>
